%YAML 1.1
%TAG !u! tag:unity3d.com,2011:
--- !u!1 &4408376201724494092
GameObject:
  m_ObjectHideFlags: 0
  m_CorrespondingSourceObject: {fileID: 0}
  m_PrefabInstance: {fileID: 0}
  m_PrefabAsset: {fileID: 0}
  serializedVersion: 6
  m_Component:
  - component: {fileID: 4408376201724494091}
  - component: {fileID: 4408376201724494090}
  m_Layer: 0
  m_Name: GameOverManager
  m_TagString: Untagged
  m_Icon: {fileID: 0}
  m_NavMeshLayer: 0
  m_StaticEditorFlags: 0
  m_IsActive: 1
--- !u!4 &4408376201724494091
Transform:
  m_ObjectHideFlags: 0
  m_CorrespondingSourceObject: {fileID: 0}
  m_PrefabInstance: {fileID: 0}
  m_PrefabAsset: {fileID: 0}
  m_GameObject: {fileID: 4408376201724494092}
  m_LocalRotation: {x: 0, y: 0, z: 0, w: 1}
  m_LocalPosition: {x: 4.9003468, y: 3.7351246, z: 1.7379818}
  m_LocalScale: {x: 1, y: 1, z: 1}
  m_Children: []
  m_Father: {fileID: 0}
  m_RootOrder: 0
  m_LocalEulerAnglesHint: {x: 0, y: 0, z: 0}
--- !u!114 &4408376201724494090
MonoBehaviour:
  m_ObjectHideFlags: 0
  m_CorrespondingSourceObject: {fileID: 0}
  m_PrefabInstance: {fileID: 0}
  m_PrefabAsset: {fileID: 0}
  m_GameObject: {fileID: 4408376201724494092}
  m_Enabled: 1
  m_EditorHideFlags: 0
  m_Script: {fileID: 11500000, guid: 659c578e81904b84c91d7463ff7b947b, type: 3}
  m_Name: 
  m_EditorClassIdentifier: 
  gameOverBackground: {fileID: 0}
  iconBackground: {fileID: 0}
  Icon: {fileID: 0}
  buttonBackground: {fileID: 0}
  gameOver: {fileID: 0}
  departmentManager: {fileID: 0}
