%YAML 1.1
%TAG !u! tag:unity3d.com,2011:
--- !u!21 &2100000
Material:
  serializedVersion: 6
  m_ObjectHideFlags: 0
  m_CorrespondingSourceObject: {fileID: 0}
  m_PrefabInstance: {fileID: 0}
  m_PrefabAsset: {fileID: 0}
  m_Name: Water material
  m_Shader: {fileID: -6465566751694194690, guid: 5c4661eba3fc1624ab0f44e3cd638a9c, type: 3}
  m_ShaderKeywords: 
  m_LightmapFlags: 4
  m_EnableInstancingVariants: 0
  m_DoubleSidedGI: 0
  m_CustomRenderQueue: -1
  stringTagMap: {}
  disabledShaderPasses: []
  m_SavedProperties:
    serializedVersion: 3
    m_TexEnvs:
    - unity_Lightmaps:
        m_Texture: {fileID: 0}
        m_Scale: {x: 1, y: 1}
        m_Offset: {x: 0, y: 0}
    - unity_LightmapsInd:
        m_Texture: {fileID: 0}
        m_Scale: {x: 1, y: 1}
        m_Offset: {x: 0, y: 0}
    - unity_ShadowMasks:
        m_Texture: {fileID: 0}
        m_Scale: {x: 1, y: 1}
        m_Offset: {x: 0, y: 0}
    m_Floats:
    - Rippledensity: 50
    - Rippleslimness: 5.94
    - Ripplespeed_0: 1
    - Wavespeed: 0.01
    m_Colors:
    - Normal_direction: {r: 0, g: -0.03, b: 0, a: 0}
    - Ripplecolor: {r: 0, g: 0.141, b: 0.08616667, a: 0}
    - Waterbase: {r: 0, g: 0.248, b: 0.24260867, a: 0}
    - Wavespeed_2: {r: 0, g: 0.1, b: 0, a: 0}
  m_BuildTextureStacks: []
